Cyclistic bike share analysis
…
no of rides per month and no of rides per ride type for each group

bike_df_1 %>%  group_by(member_casual, month) %>%  summarize(num_of_rides= n())

## `summarise()` has grouped output by 'member_casual'. You can override using the `.groups` argument.

## # A tibble: 22 x 3
## # Groups:   member_casual [2]
##    member_casual month    num_of_rides
##    <chr>         <chr>           <int>
##  1 casual        April          120418
##  2 casual        August         341463
##  3 casual        December        24492
##  4 casual        February         8613
##  5 casual        July           369401
##  6 casual        June           304184
##  7 casual        March           75641
##  8 casual        May            216823
##  9 casual        November        72847
## 10 casual        October        122317
## # ... with 12 more rows
…
